/* XPM */
static char* icon_xpm[] = {
"128 128 234 2",
"  	c None",
". 	c #343434",
"+ 	c #373737",
"@ 	c #383838",
"# 	c #393939",
"$ 	c #313131",
"% 	c #3B3B3B",
"& 	c #3F3F3F",
"* 	c #414141",
"= 	c #424242",
"- 	c #434343",
"; 	c #444444",
"> 	c #454545",
", 	c #464646",
"' 	c #303030",
") 	c #474747",
"! 	c #484848",
"~ 	c #494949",
"{ 	c #4A4A4A",
"] 	c #3A3A3A",
"^ 	c #404040",
"/ 	c #4B4B4B",
"( 	c #4C4C4C",
"_ 	c #2A2A2A",
": 	c #3E3E3E",
"< 	c #1E1E1E",
"[ 	c #252525",
"} 	c #323232",
"| 	c #141414",
"1 	c #292929",
"2 	c #333333",
"3 	c #3C3C3C",
"4 	c #181818",
"5 	c #1B1B1B",
"6 	c #2C2C2C",
"7 	c #3D3D3D",
"8 	c #5E5E5E",
"9 	c #939393",
"0 	c #B1B1B1",
"a 	c #C1C1C1",
"b 	c #C7C7C7",
"c 	c #C6C6C6",
"d 	c #BDBDBD",
"e 	c #ABABAB",
"f 	c #8C8C8C",
"g 	c #545454",
"h 	c #1F1F1F",
"i 	c #777777",
"j 	c #D8D8D8",
"k 	c #E7E7E7",
"l 	c #E6E6E6",
"m 	c #E3E3E3",
"n 	c #E2E2E2",
"o 	c #D2D2D2",
"p 	c #A6A6A6",
"q 	c #676767",
"r 	c #202020",
"s 	c #565656",
"t 	c #E5E5E5",
"u 	c #E0E0E0",
"v 	c #DEDEDE",
"w 	c #E1E1E1",
"x 	c #A8A8A8",
"y 	c #212121",
"z 	c #6E6E6E",
"A 	c #CDCDCD",
"B 	c #DFDFDF",
"C 	c #C3C3C3",
"D 	c #595959",
"E 	c #0A0A0A",
"F 	c #686868",
"G 	c #D6D6D6",
"H 	c #E8E8E8",
"I 	c #BFBFBF",
"J 	c #4E4E4E",
"K 	c #D5D5D5",
"L 	c #E4E4E4",
"M 	c #BEBEBE",
"N 	c #0B0B0B",
"O 	c #929292",
"P 	c #2B2B2B",
"Q 	c #797979",
"R 	c #666666",
"S 	c #BCBCBC",
"T 	c #C0C0C0",
"U 	c #ACACAC",
"V 	c #CACACA",
"W 	c #9E9E9E",
"X 	c #5D5D5D",
"Y 	c #DCDCDC",
"Z 	c #D3D3D3",
"` 	c #787878",
" .	c #909090",
"..	c #DBDBDB",
"+.	c #C8C8C8",
"@.	c #828282",
"#.	c #DDDDDD",
"$.	c #636363",
"%.	c #A7A7A7",
"&.	c #353535",
"*.	c #7D7D7D",
"=.	c #CBCBCB",
"-.	c #4F4F4F",
";.	c #CFCFCF",
">.	c #8D8D8D",
",.	c #4D4D4D",
"'.	c #CECECE",
").	c #9D9D9D",
"!.	c #B0B0B0",
"~.	c #9B9B9B",
"{.	c #535353",
"].	c #5A5A5A",
"^.	c #8A8A8A",
"/.	c #A0A0A0",
"(.	c #868686",
"_.	c #A4A4A4",
":.	c #D4D4D4",
"<.	c #878787",
"[.	c #DADADA",
"}.	c #5B5B5B",
"|.	c #D7D7D7",
"1.	c #585858",
"2.	c #616161",
"3.	c #B2B2B2",
"4.	c #D9D9D9",
"5.	c #E9E9E9",
"6.	c #919191",
"7.	c #656565",
"8.	c #363636",
"9.	c #7F7F7F",
"0.	c #C2C2C2",
"a.	c #AFAFAF",
"b.	c #B8B8B8",
"c.	c #7E7E7E",
"d.	c #9C9C9C",
"e.	c #959595",
"f.	c #9A9A9A",
"g.	c #A2A2A2",
"h.	c #A1A1A1",
"i.	c #D0D0D0",
"j.	c #555555",
"k.	c #7A7A7A",
"l.	c #818181",
"m.	c #9F9F9F",
"n.	c #CCCCCC",
"o.	c #505050",
"p.	c #6F6F6F",
"q.	c #989898",
"r.	c #898989",
"s.	c #6B6B6B",
"t.	c #B4B4B4",
"u.	c #BABABA",
"v.	c #8E8E8E",
"w.	c #D1D1D1",
"x.	c #515151",
"y.	c #717171",
"z.	c #969696",
"A.	c #6D6D6D",
"B.	c #6C6C6C",
"C.	c #848484",
"D.	c #696969",
"E.	c #B7B7B7",
"F.	c #B5B5B5",
"G.	c #737373",
"H.	c #ADADAD",
"I.	c #AAAAAA",
"J.	c #808080",
"K.	c #727272",
"L.	c #575757",
"M.	c #C9C9C9",
"N.	c #979797",
"O.	c #888888",
"P.	c #606060",
"Q.	c #A9A9A9",
"R.	c #525252",
"S.	c #767676",
"T.	c #C4C4C4",
"U.	c #5F5F5F",
"V.	c #A5A5A5",
"W.	c #7B7B7B",
"X.	c #757575",
"Y.	c #858585",
"Z.	c #AEAEAE",
"`.	c #BBBBBB",
" +	c #B9B9B9",
".+	c #A3A3A3",
"++	c #C5C5C5",
"@+	c #949494",
"#+	c #999999",
"$+	c #6A6A6A",
"%+	c #8B8B8B",
"&+	c #838383",
"*+	c #5C5C5C",
"=+	c #747474",
"-+	c #8F8F8F",
";+	c #EBEBEB",
">+	c #707070",
",+	c #646464",
"'+	c #EDEDED",
")+	c #F0F0F0",
"!+	c #EAEAEA",
"~+	c #B6B6B6",
"{+	c #7C7C7C",
"]+	c #2F2F2F",
"^+	c #ECECEC",
"/+	c #EEEEEE",
"(+	c #EFEFEF",
"_+	c #090909",
":+	c #080808",
"<+	c #1D1D1D",
"[+	c #282828",
"}+	c #2D2D2D",
"|+	c #191919",
"1+	c #272727",
"2+	c #161616",
"3+	c #2E2E2E",
"4+	c #121212",
"5+	c #222222",
"6+	c #0D0D0D",
"7+	c #070707",
"8+	c #1A1A1A",
"9+	c #242424",
"0+	c #0E0E0E",
"a+	c #010101",
"b+	c #020202",
"c+	c #111111",
"d+	c #262626",
"e+	c #232323",
"f+	c #060606",
"g+	c #0C0C0C",
"h+	c #101010",
"i+	c #1C1C1C",
"j+	c #040404",
"k+	c #050505",
"                            . + @ @ # @ # # # # # @ # @ # @ @ @ # @ @ @ # @ # @ @ @ # # @ # @ @ # @ # @ @ # # # @ # # @ # # @ @ # # # # # # # @ # # @ # # # # @ @ @ @ @ # @ @ # # @ @ # @ @ # # # # @ @ @ @ @ # @ @ @ @ @ @ # # @ +                             ",
"              $ @ % & * = - ; > > > , > > > > > > > , , > > > > > > > , > > > , , > > , > > , > > , , > > > > > > > > > > > > > > > > > > > > > > > > > > > > > > > > > > > > > > , > > , > > , , > > > , > > > > > > , , > , > , , , > ; ; ; = &               ",
"          ' # & = ; > , ) ! ! ! ~ ~ ! ~ ~ ~ ~ ~ ~ ~ ~ ~ ~ ~ ~ ~ ~ ~ ~ ~ ~ ~ ~ ~ ~ ~ ~ ~ ~ ~ ~ ~ ~ ~ ~ ~ ~ ~ ~ ~ ~ ~ ~ ~ ~ ~ ~ ~ ~ ~ ~ ~ ~ ~ ~ ~ ~ ! ~ ~ ~ ~ ~ ~ ~ ~ ~ ~ ~ ~ ~ ~ ~ ~ ~ ~ ~ ~ ~ ~ ~ ~ ~ ~ ~ ~ ~ ~ ~ ~ ~ ~ ~ ~ ~ ~ ~ { ~ ~ { { { ~ ~ ) =           ",
"        ' ] ^ = ; , ) ) ! ! ! ~ ~ ~ ~ ~ ~ ~ ~ ~ ~ ~ ~ ~ ~ ~ ~ ~ ~ ~ ~ ~ ~ ~ ~ ~ ~ ~ ~ ~ ~ ~ ~ ~ ~ ~ ~ ~ ~ ~ ~ ~ ~ ~ ~ ~ ~ ~ ~ ~ ~ ~ ~ ~ ~ ~ ~ ~ ~ ~ ~ ~ ~ ~ ~ ~ ~ ~ ~ ~ ~ ~ ~ ~ ~ ~ ~ ~ ~ ~ ~ ~ ~ ~ ~ ~ ~ ~ ~ ~ ~ ~ ~ ~ ~ ~ ~ ~ { { { { / / / / ( / { ! #       ",
"      _ @ : * - > , , ) ! ! ! ! ! ~ ~ ~ ~ ~ ~ ~ ~ ~ ~ ~ ~ ~ ~ ~ ~ ~ ~ ~ ~ ~ ~ ~ ! ~ ~ ~ ~ ~ ~ ~ ~ ~ ~ ~ ~ ~ ~ ! ~ ~ ~ ~ ~ ~ ~ ! ~ ~ ~ ! ~ ~ ~ ~ ~ ~ ! ~ ~ ~ ~ ~ ~ ~ ~ ~ ~ ~ ~ ~ ~ ~ ~ ~ ~ ~ ~ ~ ~ ~ ~ ~ ~ ~ ~ ~ ~ ~ ~ ~ ~ ~ ~ ~ ~ ~ { { / / / / ( / / { ) @     ",
"    < $ # : * - > > > , ) ) ) ! ) ! ! ! ) ! ! ) ! ! ! ! ! ! ) ! ! ! ! ! ! ! ! ! ) ! ! ! ! ! ! ! ! ! ! ! ! ! ! ) ! ! ! ! ! ! ! ! ! ! ! ! ! ! ! ! ! ! ) ! ! ! ! ! ! ! ! ! ! ! ! ! ! ! ! ! ! ! ! ! ! ! ! ! ! ! ! ! ) ! ! ! ! ! ! ! ! ~ ~ ~ ~ { { { / / / / ~ =     ",
"    [ } ] : * = - ; > > , , , ) ) ) ) ) ) ) ) ) ) ) ) ) ) ) ) ) ) ) , ) ) ) ) ) ) ) ) ) ) , ) ) ) ) ) ) ) ) , ) ) ) ) ) ) ) ) ) ) ) ) ) ) ) ) ) , , ) ) ) ) ) ) ) ) ) ) ) ) ) ) ) ) ) ) ) ) ) ) ) ) ) ) ) ) ) ) ) ) ) ) ) ) ) ! ) ) ) ! ! ~ ~ { { { { { ! > +   ",
"  | 1 2 ] : ^ * - ; ; > > , , , , , , , , , , , ) , , , , , , , , ) , , ) , , , , , , , , , , , , , , , , , , , ) , , , , , , , , , , , , , , , , , , , , , , , , , , , , , ) , , , , , , , , , , , ) , , , , , , , ) , , , , ) , ) ) ) ! ) ! ~ ~ ~ { { ! > 3   ",
"  4 _ . ] : ^ * = - - ; ; ; > > > > > > > > > > , , > > > > > > > > > > , > > > > > > > > > > > > > , > > , > , > > > > > > > > > > > > > > > > > , , > > , , > > > > > > > , > > > > > > > , , > , > > > > > > > > > > > > , > , , , , , , ) ) ! ! ~ ! ! > :   ",
"  5 6 . ] 7 & * = = - - ; ; ; > ; ; ; > ; > > > ; ; > > > ; > ; > > > > ; > > > ; > > ; ; ; > > > ; ; > > ; > > > > > > > ; ; - = - - ; > > > > > > > ; ; ; > > ; ; ; > > > ; > > ; > ; ; ; ; ; ; ; > ; ; ; ; ; > > > > > > > > > > > , , , , ) ) ) ) ! ! > ^   ",
"  < 6 . # 7 & ^ * = - - - - ; ; ; ; ; ; ; ; ; ; ; ; ; ; ; ; ; ; ; ; ; ; ; ; ; ; ; ; ; ; ; ; ; ; ; ; ; ; ; ; ; ; ; ; ; - & 3 = ) ~ ~ ) * 3 ^ - ; ; ; ; ; ; ; ; ; ; ; ; ; ; ; ; ; ; ; ; ; ; ; ; ; ; ; ; ; ; ; ; ; ; ; ; ; ; ; ; ; ; ; ; > > , , , , ) ) ) ) > ^ $ ",
"  < 6 . # 3 : & ^ * = = = - - - ; ; ; ; ; - - - ; ; - - - ; ; ; - ; ; ; ; - ; - ; - - ; ; ; ; - - ; ; - - ; - ; ; * % & 8 9 0 a b c d e f g 7 7 = ; ; ; ; ; - - ; ; ; - - - ; ; - ; ; ; ; ; ; ; ; ; ; ; ; ; ; ; - - ; - - ; - ; ; ; ; ; > > , > , ) ) , ) ; ^ $ ",
"  h 6 . # % : & ^ * * * = = = - - - - - - - - - - - - - - - - - - - - - - - - - - - - - - - - - - - - - - - - - : ) i 0 j k l m n m m l l o p q ^ & - - - - - - - - - - - - - - - - - - - - - - - - - - - - - - - - - - - - - - ; ; ; ; ; > > > > , , , > ; ^ $ ",
"  r 6 2 @ % : & ^ * * * = = = = = - - - - - - - - - - - - - - - - - - - - - - - - - - - - - = - - - - - - - = ] s d t l u v v v v v v v v w l u x ( 3 - - - - - - - - - - - - - - - - = - - - - - - - - - - = - - - - - - - - - - - - - ; ; > > > > > , > ; ^ } ",
"  y 6 2 @ % 7 : & ^ ^ * = = = = = = = - - - - - - - = = = - = - = - - - = = = - = = = = - - = = = = - = = = # z A l B v v v v v v v v v v v v u l C D % - = = = = - - = = = = - - = - = - - = = = = - = = - - = = = = = = - - - - - - - ; ; ; ; > > > > > - & 2 ",
"E y 6 2 @ % 3 : & ^ ^ * * * = = = = = = = = = = = = = = = = = = = = = = = = = = = = = = = = = = = = = = = % F G l v v v v v v v v v v v v v v v v H I J 7 = = = = = = = = = = = = = = = = = = = = = = = = = = = = = = = = = = = - = - - - - ; ; ; ; ; > > - & 2 ",
"E y 6 2 @ % 3 : & ^ ^ * * * * = = = = = = = = = = = = = = = = = = = = = = = = = = = = = = = = = = = = = 3 8 K L v v v v v v v v v v v v v v v v v v l M ~ : = = = = = = = = = = = = = = = = = = = = = = = = = = = = = = = = = = = = - - - - ; ; ; ; ; > ; = : 2 ",
"N y 6 2 @ % 3 7 : & ^ ^ ^ * * * * = = * = = = = = = = = = = = = = = = = = = = = = = * = * = = = * = = ^ 7 e H v v v v v v v v v v v v v v v v v v v B k O % * = = = = = = = * = = = = = = = = * = = = = = = * = = = = = = = = = = = = - - - - - ; ; ; ; ; = : 2 ",
"N r P } + ] 3 7 : & ^ ^ * * * * * * = = = = * * = = = * * * = = = = = * = = = = = = = * = = = = = = = ] Q n B v v v v v v v B m l l n B v v v v v v v u v R % * = = * = = = * = = * = = = * = * = = = = = = * = = = * = = = = = = = = - - - - - ; ; ; ; - - & 2 ",
"E r 6 2 + ] 3 7 : & ^ ^ * * * * * * = = = = * * * = = * = = = = * = = * = = = * = = = = = * = = = = ^ - S t v v v v v v v n B T x U V m w v v v v v v v H W % ^ * = = = = = * * = * = = * * = * = = * = = * = = = = * * * = = = = = = = - - - - ; ; ; ; ; = & 2 ",
"E r P 2 + ] 3 7 : & & ^ * * * * * * * * * * = = * * = = = * = = * = = = * = = * * = * * = * * * = * 7 X Y u v v v v v v L Z ` * : : ~  ...n v v v v v v n +.) & = * * * * * * = = = * = = * * * * * * * * * = * = * = = * * = = = = = = - - - - ; ; ; ; ; = : 2 ",
"E r 6 2 + ] 3 7 & & ^ ^ * * * * * * = = * * * = = = = = = = = * * * = * * * = * * = = * = = = * * = @ @.t B v v v v v L C D # & * * & # q K w v v v v v u #.$.3 = * * * * * * = = = * * = = = * = * * = = * = * * * * = * = = = = = = = = - - - ; ; ; ; ; = & 2 ",
"E y 6 } + ] 3 7 : & ^ ^ * * * * * * * = * * * = * = * * * * = * * * * = = * * = = = = * = * * * * * 7 %.l v v v v v B L ` &.* = * * = * + O t B v v v v B L *.# * * * * * * * * = = = * = = * = = * = = = * = = * = * * = = = = = = = = = - - - ; ; ; ; ; = : 2 ",
"N r 6 2 + ] 3 7 : & ^ ^ * * * * * * * * * * * = * * * * * * = = * = = = = * * = = * * = = * * * * & , C m v v v v v n =./ & * = * * = = 7 -.;.w v v v v v k >.@ * * * * * * = * * = * = = = * * = * = = * * * = = * * * * * = = = = = = - - - - ; ; ; ; ; = : 2 ",
"N r P 2 + ] 3 7 : & ^ ^ ^ * * * * * * = * * * = = = * = = * * = * = = = = = * * * = * = = = = = * & ,.'.n v v v v v l U : * * * * = = * ^ - S L v v v v v k ).% * * = = = * = = * * * = * = = * * = * * * * = = = * = = = * = = = = = = - - - - ; ; ; ; ; = : 2 ",
"E r P } + ] 3 7 : & ^ ^ * * * * * * * = * * * = = * = * * = = * = * * * * = * * = * * * * = = * * : ( A n v v v v v t !.& ^ * * = = = * & = M L v v v v #.k ~.] ^ * = * * * * = = = = * * * = = * = * * * = = = = * = = = * = = = = = = - - - - ; ; ; ; ; = : 2 ",
"E r P } + ] 3 7 : & ^ ^ * * * * * * * * * = * * = = * = = * = = = = * = = * * = = = * * * * = = * & > I L v v v v v w o {.7 = = = * * = 3 ].G w v v v v v k ^.@ = * * * * = * * = * * = * = = = * = = = * * * = = * * * * = = = = = = = - - - - ; ; ; ; ; = : 2 ",
"E y P } @ ] 3 7 : & ^ ^ * * * * * * * * * * * * = * * = = * = * = = * = = * * = = = = * * * = * * * 3 /.k v v v v v v l (.. * = * * * & + _.k v v v v v B m Q # = = = = * * * = * * * = * = * = = * = * = * * = * * * = = = = = = = = = - - - - ; ; ; ; ; = & 2 ",
"E r P 2 @ ] 3 7 : & ^ ^ ^ * * * * * * * * = = * = = = * * * * * = * = = = * * = = * = = * = = = * = # ` m B v v v v v w :.Q ] 3 & & ] & <.v u v v v v v u [.}.7 * = = = = = * = = * * * * = * * = * * = = * * * * = * = = = = = = = = = - - - - ; ; ; ; ; = & 2 ",
"E r 6 } + ] 3 7 : & ^ ^ ^ * * * * * * * * = * = = = = = = * * = * = = * = * = * * * * * * = * * = = 7 s |.u v v v v v v n u  .1.! / 2.p L u v v v v v v L a ; ^ * = = * = = * * * * * * = * * * * * * * = * * = = = = = = = = = = = = = = - - - ; ; ; ; ; = : 2 ",
"E r 6 2 + ] 3 : : & ^ ^ ^ * * * * * = * * = = = = = * * * = = = * * * = = = = * = = * = = * * = = * ^ & 3.k v v v v v v v u m 4.A ;.#.L B v v v v v v v 5.6.# * = * * * * = = * * * * * = = * * * * * * = * * = * * = = * = * = * = = = - = - - ; ; ; ; ; = & 2 ",
"E r P 2 + ] 3 7 : & ^ ^ * * * * * * = = * * = = * * * * * = = * * * * = = = * * * = * = = = = = * = = 3 7.G w v v v v v v v B u n w u v v v v v v v v n o D 7 * = * = * * * * * * * * * = * = * = = * * * * * = * = = * * = * = = = = = = = - - ; ; ; ; ; = : 2 ",
"E y P } + ] 3 7 : & ^ ^ * * * * * * = * = = * * = = = * = = = * * * * * * = = * * = * * * = = = = = = * 8./.k v v v v v v v v v v v v v v v v v v v B n 9.# = = = * * * = * * = * * * * * * = * * * * = * * * * = * = = * * * = = = = = - - - - ; ; ; ; ; = : 2 ",
"E r 6 } + ] 3 7 : & ^ ^ ^ * * * * * = * * = = * = = = = = * * = * = * = = = = * * * = = * * * = = * * : J 0.m v v v v v v v v v v v v v v v v v v v t a.& ^ = = * * = * * * = = * * = = * = = = = * * = * * * * * * = = * = = = = = = = - - - - ; ; ; ; ; = & 2 ",
"E r 6 } + ] 3 7 : & ^ ^ * * * * * * = = * = = * * * * * = * * * = = * = = * * * * * = = = * * * * = * % W k v v v v v v v v v v v v v v v v v v v v L b.= ^ = = * * * * * = = = * * = = = = * = = * * * * * * = * * * * * * = = = = = = - - - - ; ; ; ; ; = : 2 ",
"E r P } + ] 3 7 : & ^ ^ * * * * * * * = = = * * * = * = * * = = * * * = = * * * * * * * = * * * * * % ].4.w v v v v v v v v v v v v v v v v v v v v B m ` + = = * = * = = = = = * * = = = = * * * * = = = * * = = = * = = = = = = = = = = - - - ; ; ; ; - = & 2 ",
"N r 6 } + ] 3 7 : & ^ ^ ^ * * * * * * * = = * = = = = = * = * = = * * = = = = = * = * * = = * = = & = e t v v v v v v v v v v v v v v v v v v v v v v m =.g 7 * = = = = = * * = * * = = = = * * = = = = * * = = = = = = = = * = = = = = - - - - ; ; ; ; ; = & 2 ",
"E r 6 } + ] 3 7 : & ^ ^ ^ * * * * * * * * * * = * = * * = = * * * = = = = = = = * * * = = * * * = @ c.l B v v v v v v v v B k H k k w v v v v v v v v v H d.] * = * = * * * = = * = * = = * * * = = * = * = = = * = = = = * = = = = = = - - - - ; ; ; ; ; = : 2 ",
"E r P 2 + ] 3 7 & & ^ ^ ^ * * * * * * = = * * * = * * * = = = * * = = = = * = = * * * = * * = = & > T L v v v v v v v v u j e.f.g.h.i.n v v v v v v v v w :.j.3 = = = * * * = * = = * = * * * * = * = * = = = = * * * * = = = = * = = = = - - - ; ; ; ; ; = : 2 ",
"E r P 2 + ] 3 7 : & ^ ^ ^ * * * * * * = * * = = * * = = = = * * = = = = = * * * * = = = * = = = # k.m B v v v v v v v v l p + # 3 8.l.m B v v v v v v v v l m.7 * = = = = * = = = = = = = * = = * * = = = = = = * * = = * * = = * = = = - - - - ; ; ; ; ; = & 2 ",
"E r P } + ] 3 7 : & ^ ^ * * * * * * * = = * * = = * = = = = * * = = * = = * = * * = * = * = = 7 g i.n v v v v v v v v n n.o.7 * * & 7 !.k v v v v v v v v u n p.# = = = * * * = * = = * * = = = * * = * * * * * = = * = * = = * = = = = - - - - ; ; ; ; ; = : 2 ",
"E r P 2 + ] 3 7 & & ^ ^ ^ * * * * * * = = = = = = = * * * * = = * * * * = = = * * * * * = * * # q.k v v v v v v v v v k r.@ = * = = ] s.v w v v v v v v v v l t.= & * * * * * = = * * = * = = * * * * = = * * * = * = = = = = * = = = = - - - - ; ; ; ; ; = : 2 ",
"N r P } + ] 3 7 : & ^ ^ ^ * * * * * * = * = * * = = * * * * = = * * * * * = = * * = = * * = % R ..w #.v v v v v v v t u.> & = * * = * # O l v v v v v v v v v l v.# * = * * = = = * = * = = * = * * * * = = = * * = = = * * = = = = = = - - - - ; ; ; ; ; = : 2 ",
"E r 6 } + ] 3 7 : & ^ ^ ^ * * * * * * * = = = * * * = = = = * * = = * = * * = * * * * * * ^ * u.l v v v v v v v v u v R ] = = * * * * 7 -.'.m v v v v v v v v n w.x.3 = * * * = = * * * = = * = * * * * * = * = = = = * * = = = = = = = - - - - ; ; ; ; ; = : 2 ",
"E r 6 } + ] 3 7 : & ^ ^ * * * * * * * * = = = = * * = = = = * * * * * = = * * = = * = * = @ y.w B v v v v v v v v k a.: ^ = * * * * * * # r.t v v v v v v v v v l z.] * * * * * * * * * * * = = = * * * * * * * * = = * = = * = * = = = - - - - ; ; ; ; ; = & 2 ",
"N r 6 } + ] 3 7 & & ^ ^ * * * * * * = = * * = = = * * * * * = = = = * * = = * = = = = = 7 j.=.m v v v v v v v v m =.{.7 = = * = * = * * & ^ 0 t v v v v v v v v u u p.] * = = * * * * * = * = * * * * = * = = * = = * * * = = = = = = = - - - - ; ; ; ; ; = & 2 ",
"N r 6 } + ] 3 7 & & ^ ^ * * * * * * = = = = * * * * * * = * = = = = = * = = * * * = = = # z.5.v v v v v v v v v l ^.+ = = * * = * = = = = # A.w B v v v v v v v v l t.& ^ = * * * = * * * * = = = * * = = * * * = = * = = = = = = = = = - - - - ; ; ; ; ; = : 2 ",
"E r P } + ] 3 7 : & ^ ^ * * * * * * = = * = * * * = = * = * * = * * = = = = * * * = = 3 x.Z n v v v v v v v #.m ;.,.: = = * = = = * * * = ^ & t.k #.v v v v v v v B u B.@ = * * * = * = * * = = = = * = = * * * * * * = = * = = = = = = - - - - ; ; ; ; ; = : 2 ",
"E r P } + ] 3 7 : & ^ ^ ^ * * * * * * * = = * * * = * * = * * * * * = = = * * = = * * 7 d.t v v v v v v v v B n C.% * * * * * = * * * = = * % 2.K w v v v v v v v v m I / : = = = = * = = = * * * = * = = = * * = = = * * = = = = = = = = - - - ; ; ; ; ; = & 2 ",
"E r 6 } + ] 3 7 : & ^ ^ ^ * * * * * * * = = * = * * = = * = * * * * * = * * * = = * # D.w u #.v v v v v v #.l E.: ^ = = = = * * = = * = = = * + q.5.v v v v v v v v v H r.8.= = * * * * * * * * * * = = * = = * = = = = = = * = = = = = = - - - ; ; ; ; ; = & 2 ",
"E r 6 } + ] 3 7 : & ^ ^ ^ * * * * * * * * * * = = * = = * = = * = = = = = = = = * & = F.t v v v v v v v v u B s.] = * * * = * = = = * * * = * 7 x.b m v v v v v v v v n '.1.3 * = = * * = * = = = * = = * * = = * * * * * = = = = = = = = = - - ; ; ; ; ; = : 2 ",
"E r 6 2 + ] 3 7 : & ^ ^ ^ * * * * * * * * * * = = * * * * = = * = * * * = = = = * ] C.t v v v v v v v v v l d.% * = = * * * * = * * * = = = = * + G.m B v v v v v v v v H H.7 * * * * * * = = = * = * = = * = = = * = = * = * = = = = = = - - - ; ; ; ; ; = : 2 ",
"E r 6 2 + ] 3 7 : & ^ ^ ^ * * * * * * = = * = = * * = = = * * * = = = * = = = = 7 J i.m v v v v v v v #.n o o.7 * * = = = = * = = = * * = * = = & * u.t v v v v v v v v u v 7.] * * = * * = * * = = = * = * * = * = = = = = * = = = = = - - - - ; ; ; ; ; = : 2 ",
"E y 6 } + ] 3 7 : & ^ ^ ^ * * * * * = * * = = = * * * * * = * = = = = * * = * * @ ^.l v v v v v v v v v k z.] * = = = = = = = = = = = * * * = = * ] i m B v v v v v v v v l I.3 ^ = * = = * = * = * * * * = * = = = = = * = = = = = = = - - - - ; ; ; ; ; = : 2 ",
"E y P } + ] 3 7 & & & ^ * * * * * * = = * = * = = * * * = = = = * = * * * * * 3 1.:.w v v v v v v v v L b ( : * * * = * * = = * * * * = * = = = = * 7 /.l v v v v v v v v B m J.# * * = = = = * * * * * = = * * = * * = = * = = = = = = = - - - ; ; ; ; ; = : 2 ",
"E r P 2 + ] 3 7 : & & ^ * * * * * * * * * * * = * * * = = * = = * * * * * * ^ : H.l v v v v v v v v B w K.# * * = = * = = = * * * * = = * * * * = * 3 L.G n v v v v v v v v L M.{ : * * = = = = * * * * = = * = = = * * * = = = = = = = - - - - - ; ; ; ; = : 2 ",
"E r P } + ] 3 : : & ^ ^ * * * * * * * * * * * * = = * * = * * * * * = * * * # 7.u u v v v v v v v v l u.^ ^ = * = * * = * = = * = = * * * * * * * = * % N.k v v v v v v v v v t O.# = = = * * * * * * = = * = = = * * * * * * * = = = = = - - - ; ; ; ; ; = & 2 ",
"E r P 2 + ] 3 7 : & ^ ^ ^ ^ * * * * * * * * = * = = * * = * * * * = = = = : ,.a m v v v v v v v v w Z P.3 * * * * * * = * * * * = = * * = = = * * = * & ) S L v v v v v v v v w 4.$.] = * = = = * = = = * * = = = * * * = = = = = = = = - - - - ; ; ; ; ; = & 2 ",
"E r P } + ] 3 7 : & ^ ^ ^ ^ * * * * * = * = = = * * = = = = = * = = * * * @ ^.H v v v v v v v v v k e.+ * = = = = = = = * = * * * = = = * * = * = = * = @ i L B v v v v v v v v k Q.% ^ * = * = = = = = = * = = * * * = * = = = = = = = - - - - ; ; ; ; ; = : 2 ",
"E y P } + ] 3 7 : & ^ ^ ^ * * * * * * = = = = * * * * * = = * * * * = = 7 R.'.n v v v v v v v v n K g 7 = = = = = = = = * = * * * = = = * * * * * = = * ^ ; T l v v v v v v v v B u S.# * = = = * * = = = * * * * * * * * * = = = = = = - - - - ; ; ; ; ; = : 2 ",
"E y 6 } + ] 3 7 : & ^ ^ ^ * * * * * * * = = = * = = * * * * = * = = * ^ 7 p l v v v v v v v v v t O % * = = = = * * * = = = * * = * * * * = * * * * * = * % z ..u v v v v v v v v t T.) & * = = * * * * * * * * = * = = * = = = = = = = = - - - ; ; ; ; ; = : 2 ",
"E r P } + ] 3 7 : & ^ ^ ^ * * * * * * * * = = * = = = = * * = * = = * ] U.#.u v v v v v v v v L 0.> : = * = * = * = = = = = = = = * * * * = = = * * * = * * # V.H v v v v v v v v B t W.@ = * = = = * * * = = = = * = * * * * = = = = = = - - - ; ; ; ; ; = : 2 ",
"E r 6 2 + ] 3 7 : & ^ ^ * * * * * * * * = = = * * = = = = = = = * = ^ 3 I.l v v v v v v v v u L S.# = * = * = = * = = * * * = = * * * = = * = = = = = * * = 3 ].o n v v v v v v v v m c J : * * = = * * * = = * * * * * * * * = = = = = - - - - ; ; ; ; ; = : 2 ",
"E r P } + ] 3 7 : & ^ ^ * * * * * * * * = * * = * * = = * * = = = = ] X.w B v v v v v v #.v t e & ^ = = * * * = = * * * * * * = * * * = = * = * = * = = = = = @ @.L B v v v v v v v v H m.% * * = = * * * * * * * * = * * = = = = = = = - - - - ; ; ; ; ; = : 2 ",
"E r P } + ] 3 7 : & ^ ^ * * * * * * * * = * = * * = * * * * ^ ^ ^ 7 , b L v v v v v v v #.w 4.1.3 * = = * * * = = * = = = * * * = = * = = = * = = * * = = = = & , c t v v v v v v v v w [.].] ^ & ^ ^ * = * = * * * = = * = = = = = = = - - - - ; ; ; ; ; = : 2 ",
"E r 6 } + ] 3 : : & ^ ^ * * * * * * * * = * = = = = * ^ % ] & - ; 7 Y.L v v v v v v v v v t ~.3 * = * * * = = = = * = = = * * * = = = = * * = = * = = * * = * = % S.v u v v v v v v v v t e ; = ; = % ] & ^ = = * * = = * * = = = = = = - - - - ; ; ; ; ; = : 2 ",
"N r 6 } + ] 3 7 : & & ^ ^ * * * * * * = = * = = = 7 ] = A.~.Z.`.d  +4.u v v v v v v v v L T > & = = * * * = = = = * = * = * * * * = = * * * * * * = = * = * * * * # .+k v v v v v v v v B w d `.d t.V.@.,.3 ] * = = = * = = = = = = = = - - - - ; ; ; ; - = : 2 ",
"N r 6 2 + ] 3 7 : & ^ ^ ^ * * * * * * * * * = * % R.f S B H l L L L u v v v v v v v v v L W.@ * = = = = * = = * * = * = = = = * = = = = = = * * * * * * = * * = = % P...w v v v v v v v v v L L L t k L A .+B.7 : = = * * * * = = = = = - - - - ; ; ; ; - = : 2 ",
"E y 6 2 @ ] 3 7 : & ^ ^ ^ * * * * * * = = = ^ % s.'.H L B v v v v v v v v v v v v v v L ++, & * * * = * = = = * * = * * * = * = = = = = = = = = * * * * = = * * = * 7 p l v v v v v v v v v v v v v v B n k n 9 > 7 = = * * * = = = = = - - - - ; ; ; ; ; = & 2 ",
"E r 6 } + ] 3 7 : & ^ ^ ^ * * * * * * * = : 3 e.B m v v v v v v v v v v v v v v v v B B y.% * = * * * * = = = = = * = * * * * = * = = = * * = = * * * * = = * * * = : o.n.m v v v v v v v v v v v v v v v v u l a {.] = * = = = = = = = - - - - ; ; ; ; ; = & 2 ",
"E y 6 } + ] 3 7 : & ^ ^ ^ * * * * * * = & - e.L w v v v v v v v v v v v v v v v v v L _.% ^ * = = = * = * * = * = * = = * * * * * = * = * * * = = * * = * * * * = * = # <.m B v v v v v v v v v v v v v v v v B l ++8 3 = * = = * = = = - - - - ; ; ; ; ; = : 2 ",
"E r 6 } + ] 3 7 : & ^ ^ ^ * * * * * * * # @+5.u v v v v v v v v v v v v v v v v v B m X.8.* * * = = * * * = * = = = = = * * = * * * * = * = * * * = * = * * = = = * = 7 ,.;.n v v v v v v v v v v v v v v v v v v H ++! : = = = = = = = - - - - ; ; ; ; ; = & 2 ",
"E r P } + ] 3 7 & & ^ ^ ^ * * * * * = % X 4.w v v v v v v v v v v v v v v v v v v v m  +) & * = = = = * * = = = * * = * * * = * * * * * * = = * * * * = * = * = * = = # Y.w B v v v v v v v v v v v v v v v v v v v t #+: * = = = = = = = - - - - ; ; ; ; = : 2 ",
"E r P } + ] 3 : : & ^ ^ ^ * * * * * ^ * !.l v v v v v v v v u L t n B v v v v v v v v k O &.] % 3 % % % % % % ] % ] % % % ] ] % % % % % % 3 % ] ] % % % % % % % % % + J '.m v v v v v v v v w L L n B v v v v v v v u n D.] = = = = = = = - - - ; ; ; ; ; = : 2 ",
"E r 6 } + ] 3 : : & ^ ^ ^ * * * * * # S.L B v v v v v v B t j d F.c w m v v v v v v v n o K.F $+s.$+s.s.$+s.s.$+s.s.$+$+s.s.s.s.s.s.s.s.s.s.s.$+s.s.s.$+s.s.s.s.s.$+R I.t v v v v v v v u k Z b.b.V L n v v v v v v v l I.7 * = * = = = - - - - ; ; ; ; ; = : 2 ",
"E r 6 } + ] 3 7 : & ^ ^ ^ ^ * * * * 3 V.k v v v v v v B u a.X = * , ` V m v v v v v v #.B B v v v v v v #.v v v v v v v v v v v v v v v v v v v v v v v v v v v v v v w v v v v v v v w v W s ^ * { %+o m v v v v v v u K L.7 = = = = = - - - - - ; ; ; ; = : 2 ",
"E r 6 } @ ] 3 7 : & ^ ^ ^ * * * * & ) +.n v v v v v v t  .% % ^ ^ & @ /  +t v v v v v v v B u B B B B B B u B B B B B B B B B B B B B B B B B B B B B B B B B B B B u v v v v v v v u ..i # 3 ^ ^ : + P.j n #.v v v v v k  .# * = = = - - - - - ; ; ; ; ; = : 2 ",
"E r 6 2 + ] 3 7 : & ^ ^ ^ * * * * % R #.u v v v v v L 0.) 7 = = = = * + 7.Y u v v v v v v v v v v v v v v v v v v v v v v v v v v v v v v v v v v v v v v v v v v v v v v v v v v B t #++ ^ = = = = * # O.n v v v v v v l a.& ^ = = = = - - - - ; ; ; ; ; = : 2 ",
"E r P 2 + ] 3 7 : & ^ ^ ^ * * * * @ O.l v v v v v v L &+@ = = = * = * ^ ^ E.L v v v v v v v v v v v v v v v v v v v v v v v v v v v v v v v v v v v v v v v v v v v v v v v v v v u ..U.% * * = = * = & - a m v v v v v m a > ^ = = = = - - - - ; ; ; ; ; = : 2 ",
"E r P } + ] 3 7 : & ^ ^ ^ * * * * # N.H #.v v v v u [.8 3 * * * * = = * % /.k v v v v v v v v v v v v v v v v v v v v v v v v v v v v v v v v v v v v v v v v v v v v v v v v v v w w.,.& = * * * * * ^ 7 x l v v v v v n +.) ^ = = = = = - - - ; ; ; ; ; = : 2 ",
"E r P 2 + ] 3 7 : & ^ ^ * * * * * # q.H v v v v v u 4.}.7 * = * * * * * % W k v v v v v v v v v v v v v v v v v v v v v v v v v v v v v v v v v v v v v v v v v v v v v v v v v v w ;./ & = = = = * = * 7 %.l v v v v v n M.) ^ = = = = - - - - ; ; ; ; ; = : 2 ",
"E r P 2 + ] 3 7 : & ^ ^ ^ * * * * @ r.l v v v v v B L J.@ * = = * * = ^ & F.t v v v v v v v v v v v v v v v v v v v v v v v v v v v v v v v v v v v v v v v v v v v v v v v v v v u ..X 3 = = = * = = & * I m v v v v v m 0., ^ = = = = - - - - ; ; ; ; ; = : 2 ",
"E r 6 } + ] 3 7 : & ^ ^ * * * * * ] s.B B v v v v v L  += & = = = * * ] *+j w v v v v v v v v v v v v v v v v v v v v v v v v v v v v v v v v v v v v v v v v v v v v v v v v v v B t v.+ * * * * = * # k.B B v v v v v t 3.^ ^ = = = = = - - - ; ; ; ; ; = : 2 ",
"E r P 2 @ ] 3 7 : & & ^ * * * * * & ~ V n v v v v v v t ^.8.3 ^ * & @ > F.t v v v v v v v B B B B B B B B B B B B B B B B B B B B B B B B B B B B B B B B B B B B B B v v v v v v #.w [.=+&.7 ^ ^ : . }.K n v v v v v v k 9 ] = = = = = - - - - ; ; ; ; ; = : 2 ",
"E r P 2 + ] 3 7 : & ^ ^ ^ * * * * * 3 x l v v v v v v u ..~.8 ; & / p.`.L B v v v v v v B w u u u u u u u u u u u u u u u u u u u u u u u u u u u u u u u u u u u u u w v v v v v v v m j f 1.^ ^ -.W.++L v v v v v v u |.X 3 = = = = = - - - - - - ; ; ; = : 2 ",
"E y 6 } + ] 3 7 : & ^ ^ ^ * * * * * # W.k v v v v v v v u l ..M a.M.w L v v v v v v #.w |.W.p.y.K.y.K.K.K.y.K.y.K.K.K.y.K.K.K.K.K.K.K.K.y.y.K.y.y.y.y.K.K.K.K.K.K.y.z t.l v v v v v v v w l K F.t.;.L m v v v v v v v l 0 : * = = = = = = - - - ; ; ; ; ; = : 2 ",
"E r 6 } + ] 3 7 : & ^ ^ ^ * * * * * & ) b.t v v v v v v v v u m t n B v v v v v v v v l #++ # ] % ] % % ] ] % ] ] # ] ] ] ] ] ] ] % ] ] ] ] ] ] ] ] ] ] ] % ] % ] ] &.L.i.n v v v v v v v v w t t w B v v v v v v v u m y.% * = = = = = = - - - ; ; ; ; ; = & 2 ",
"E r P } + ] 3 7 : & & ^ ^ * * * * * = # $.#.w v v v #.v v v v v v v v v v v v v v v t C ! : = = * * = = = * = = = = = = = = = * = = * * * = * * * * * * = = = * = * * + -+5.B v v v v v v v v v v v v v v v v v v v l .+7 * = = = = = = - - - - ; ; ; ; ; = : 2 ",
"N r 6 2 + ] 3 7 : & & ^ * * * * * * * * ] f.;+B v v v v v v v v v v v v v v v v v n w A.] = = * * * * * = = = * = = * * * = = = = * = * * * * * * * = * = = = * = * * & > !.k v v v v v v v v v v v v v v v v v v l V / 7 * = = = = = = - - - ; ; ; ; ; ; = & 2 ",
"E r P 2 + ] 3 7 : & ^ ^ * * * * * * * * : { I.l u v v v v v v v v v v v v v v v m B *.3 ^ = = * * * * * * * * * * * * = * * * = = * = = * = = * * * = = = * * * = * = = 3 -.++k v v v v v v v v v v v v v v v v L K B.% = * = = = = = = = - - - ; ; ; ; ; = & 2 ",
"E r 6 } + ] 3 7 : & ^ ^ * * * * * * * = = 3 ; U t m v v v v v v v v v v v v B l u ^.@ ^ * = = * = = * * * = = = * * * = = = = = * * * = * = = = * * = = = * * = * = = * = ] 8 ++H w v v v v v v v v v v v v u k w.R @ = * = * = = = = = = - - - ; ; ; ; ; = : 2 ",
"E r 6 } + ] 3 : : & ^ ^ * * * * * * * = = * : ^ *.;.k n B v v v v v v v u t m F.7.7 * = = = * = = = * = * = = = = = * * * = * = * * * * = * * = * = * * * * * = = = * * * = 3 { @+K H w B v v v v v v B u l w /.g % * = * = * = = = = = - - - - ; ; ; ; ; = : 2 ",
"E r P } + ] 3 7 : & ^ ^ ^ * * * * * * * = = = ^ @ x.).;.w k t m n L l l #.a J.& % ^ = = = = = = = * * = * * * * * * * * * = = * * * * = = = = = = * * * = * * * * * = = * * * : @ P.e K m k t n n L k L 4. +=+3 3 * = * = * = = = = = = - - - - ; ; ; ; ; = : 2 ",
"E r P } + ] 3 7 : & ^ ^ * * * * * * * * * * = = * 7 3 ( >+ .3.++M.I p C.$.- % & = * = = = = = = * * = * * = * * * * = = = * * * * = * * * = = = = = = = = * = = = = = = * = = = * 3 7 g S.q.E.+.+.S h.c.D * ] ^ = * * * * = = = = = = = - - - - ; ; ; ; ; = : 2 ",
"E r 6 2 + ] 3 7 : & ^ ^ ^ * * * * * * * * = = * = * * & # @ * ) ~ ; 7 @ 3 ^ * = = * * * = = = * * = = = = = * = = = = = * = = * = = = = = * * * * = = = * * * = * = * * * * * = = = * : # % * ! ! - 3 # 7 ^ * * = * = = * * = = = = = = = - - - ; ; ; ; ; = : 2 ",
"E r 6 } + ] 3 7 : & ^ ^ ^ * * * * * * = * = = * = & : & * * ^ & & ^ * * = = ^ : & = * * = = = ^ * * * = = = * = * & : ^ * = = ^ : & * * * * = * * = * * ^ : & * * = * = = ^ * ^ * * * * * ^ & & & & = * : & ^ = * * * * = = * = = = = = - - - - - ; ; ; ; = : 2 ",
"E r P } + ] 3 7 : & ^ ^ ^ * * * * * * * * * = & ] , x.{ % 3 * * * * = = : ] ) o.! 3 7 * * = * 3 3 % 7 * * = * 3 ] ~ x.; ] 7 ] ; o.{ ] 3 * * = = * * : # > o.! % 3 * * = & % 3 % 3 % % 3 3 % * * * ^ ] & -.J ^ % ^ * * * * * = = = = = = = - - - ; ; ; ; ; = : 2 ",
"E r 6 2 + ] 3 7 : & ^ ^ ^ * * * * * * * * * 7 / Y.C K V z.1.3 * = = * % o.O C K +.N.{.3 * ^ ;  .h.g.O.= * * % j.-+c K I <.g 9.S K M.e.].% * * * = 3 -.O.T :.+.N.].3 ^ 3 p._.m.m.m.m.m.m./.).L.: : & p.U Z i.!.A.& & = * * = = = = = = = - - - - ; ; ; ; ; = : 2 ",
"E r P 2 + ] 3 7 : & ^ ^ ^ * * * * * * * = ] 1.+.l L w m k |.K.# = = % ,+V H m w m k K >+@ & ) A ;+'+I = ^ ] i Z k m w L m |.n t w m k j @.% * = % j.b H L w m k 4.i ] @ O )+k k k k k k 5.t q # > p m l w w l n _.^ ^ * * * = = = = = = - - - - ; ; ; ; ; = : 2 ",
"E r P 2 @ ] 3 7 : & ^ ^ ^ * * * * * * * : -.I l v u L w v L j 7.% : -.M.k v u t w v l '.].% ) c n L b.- % }.G t v n L v B u B v m n v L v F % & ,.`.k v B L w v m [.D.$  .5.u B v v v u n v ,+&.O !+u v m m v w l r.7 * * * = = = = = = = - - - ; ; ; ; - = : 2 ",
"E y 6 2 @ ] 3 7 : & ^ ^ ^ * * * * * * * @ %+!+v u ..b.'.w v 5.Q.7 @ ^.k v u |.t.i.w v 5.H.3 , c n L b.= @ #+5.v w =.d B v v v u a b w v t 0.) 8.(.!+v u Y  +Z w v H Z.&.%+n 4.Y v v v ....j U.-.K w v u M 0.n v n 4.*+3 = = = = = = = = = - - - ; ; ; ; ; = : 2 ",
"E r 6 } + ] 3 7 : & ^ ^ ^ * * * * * * * 7 %.k u Y G.% ].'.n m ++; & ~+t B #.K.] D +.n n M., ; c n L b.* ^ ~+t w Z ].7 p t v L E.; o.b n u #.8 + .+k B #.i 3 U.n.n n M., ( X g ).t u #.Q L.}.& J.t B t I.= ; h.m B L W.# = * * = = = = = - - - - ; ; ; ; ; = : 2 ",
"E y 6 } + ] 3 7 : & & ^ ^ * * * * * * ^ * t.t n =.- % % H.l w ;.{ ) V n n c ; 7 ] %.l w o / ; c n L b.^ ; a m m M * . S.m B H @+&.3 I.l u v F # Z.t n '., 3 @ x l w Z ,.3 7 . >.k u Y P.8.3 @ #+H B t c.. &.B.u u l Y.@ = * * = = = = = = - - - ; ; ; ; ; = : 2 ",
"E r 6 2 + ] 3 7 : & & ^ * * * * * * * & = F.L n +.; % ] Q.l w i./ ! n.n m 0., : : %.l w Z ,.; c n L b.* - 0.m m d ; @ G.u B k 9 @ : I.l u #.F ] !.t n =.> ] # V.l w Z o.: * # -+k u Y ,+3 * # ~.H B L {+. + $+B u l (.@ * = * = = = = = = - - - ; ; ; ; ; = : 2 ",
"E r 6 2 + ] 3 : : & ^ ^ * * * * * * * & = F.L u |.I.%.%.n.w w i.{ ! =.n m 0., : 7 %.l w Z ,.- c n L b.^ ; 0.m L M ; @ =+u B k 9 @ : I.t B #.F ] !.t u j e %.%.=.w w Z -.& * @  .k u Y ,+3 * # #+H v u d V.p E.v B l (.@ * = = = = = = = - - - - ; ; ; ; ; = : 2 ",
"E r P } + ] 3 : : & ^ ^ ^ * * * * * * ^ * ~+L v B l k k w v w i.{ ! n.n m 0., & 7 %.l w o ,.- c n L b.^ - 0.m L M ; @ G.w B k 9 @ : I.l B v F # !.t v B l k k w v w Z -.& * @ -+k u Y ,+3 * # #+H v v m k k L v v l (.@ = * = = = = = = - - - - - ; ; ; ; = : 2 ",
"E r P } @ ] 3 7 : & ^ ^ * * * * * * * ^ = F.t v B m L L u v w i.{ ! =.n m 0., & 7 %.l w Z ,.; c n L b.* ; 0.m m M ; @ G.w B k 9 @ : I.l u v F ] !.t v B m L m u v w Z -.: * # -+k u Y ,+3 * ] f.H v v n L L n v v l (.@ = * * = = = = = = - - - ; ; ; ; ; = : 2 ",
"N r 6 } @ ] 3 7 : & ^ ^ ^ * * * * * * & * F.L u w.l.{+*.I n w i.{ ! n.n m 0., : 7 %.l w Z ( ; c n L b.* ; 0.m m M ; @ =+w B k 9 + : I.l u v F ] !.t u o @.{+{+S m w Z -.: * @ -+l u Y ,+% * # #+H v n _.` k.#+B B l (.+ = = = = = = = = = - - - - ; ; ; ; = & 2 ",
"E r 6 } + ] 3 7 : & ^ ^ ^ ^ * * * * * ^ * F.L n +.& &.8.x l w i./ ! n.n m C , & 7 %.l w Z ( - c n L b.^ - 0.m L d ; @ G.w B k 9 + : I.t B v F ] !.t n =.* &.. _.l w Z -.: * @ -+k u Y ,+3 * ] f.H B L k.]+$ q B u l (.@ * = = * * = = = - - - - - ; ; ; - = : 2 ",
"E r 6 } + ] 3 7 : : ^ ^ ^ ^ * * * * * & = ~+t m M.) : : e k n w./ ! n.n L C , : 7 %.k n Z ,.- b m t  +^ - 0.m L M ; @ G.w u H 9 @ : I.k u v F # !.l n A ~ : 7 %.k n :.-.: * @  .k w #.,+% * # f.5.u t 9.@ % A.u w k (.+ * * = * * = = = - - - - - ; ; ; ; = : 2 ",
"E r P } + ] % 7 : & & ^ ^ * * * * * * & * u.;+H '.) : : a.^+k K { ! w.H 5.+.> : 7 e ^+k j ,.- =.H !+d ^ - b 5.5.0.; @ X.k t '+z.+ : Z.^+l L $+# t.;+H w.! 7 7 e ^+k 4.o.: * @ O /+l n 7.% * # ).(+t !+l.@ ] p.t l ^+O.+ * * = = = = = = - - - - - ; - ; ; = : 2 ",
"_+h P } + ] % 7 : & & ^ ^ ^ * * * * * ^ * p.l.J.i ; ^ ^ s.@.J.Q > - i J.l.=+- ^ & D.@.J.k., = X.J.l.>+^ = G.l.l.K.- 7 j.J.9.@.2.7 ^ $+@.J.9.x.: A.@.J.` ; ^ & D.@.J.W.) ^ * 7 U.@.J.c.-.& * : ,+&+9.l.D 7 : {.9.9.@.*+7 * * * = = = = = = = = - - ; ; ; - = : } ",
"_+h P } + # % 7 : & & ^ ^ ^ ^ * * * * * * ] + @ # * * * % + @ # ^ * # @ @ ] * * * % @ + # ^ * # @ @ ] * * ] + @ ] * = : @ @ @ 3 * * % @ + @ : * % + @ # * * * % @ @ # ^ * * = 7 + + @ & * * * 3 + @ @ 7 = * : @ @ @ 7 = * * * * * * = = = = - - - - ; ; - = : } ",
":+h _ $ 8.# % 3 7 : & & ^ ^ ^ * * * * * * * * * * * * * * ^ * * * * * * * * * * * * * ^ * * ^ * * * * * ^ * * * * * * * * * * * ^ * * * * * ^ ^ * * * * * * * ^ * * * * * * * * ^ ^ * * * * * * * ^ * * * * * * * * * * * * * * * * * * = = = - - - - - - * 7 ' ",
"  <+1 $ 8.# % 3 7 : & & ^ ^ ^ ^ ^ ^ ^ ^ ^ ^ ^ ^ ^ ^ ^ ^ ^ ^ ^ ^ ^ ^ ^ * ^ ^ ^ ^ ^ ^ ^ ^ * ^ ^ ^ ^ ^ ^ ^ ^ ^ ^ ^ ^ ^ ^ ^ ^ ^ ^ ^ ^ ^ ^ ^ ^ ^ ^ ^ ^ ^ ^ ^ ^ ^ ^ ^ * ^ ^ ^ ^ ^ ^ ^ ^ ^ ^ ^ ^ ^ ^ ^ ^ ^ ^ ^ * ^ ^ ^ ^ ^ ^ ^ ^ * * * * * * * * * = = = - - - = * 3 ]+",
"  5 [+' &.@ ] 3 7 7 : & & & ^ ^ ^ ^ ^ ^ & ^ ^ ^ ^ ^ ^ ^ ^ ^ ^ ^ & ^ ^ ^ ^ ^ ^ & ^ ^ ^ ^ ^ ^ ^ ^ ^ ^ ^ ^ ^ ^ ^ ^ ^ ^ ^ ^ ^ & ^ ^ ^ ^ ^ ^ ^ ^ ^ ^ ^ & ^ ^ ^ ^ ^ ^ ^ ^ ^ ^ ^ ^ ^ ^ ^ ^ ^ ^ ^ & ^ ^ ^ ^ ^ ^ ^ ^ ^ ^ ^ & ^ ^ ^ ^ ^ ^ ^ * * * * * = = = - = = = ^ % }+",
"  |+1+]+. + ] % 3 7 : : : : & & & & & & & & & & ^ & & ^ & & & & & ^ ^ & & & & & & & & & & ^ & & & ^ & & & & ^ & & & & & & & & & & & & & & & & & & & & ^ ^ ^ & & & & & & & & & ^ & ^ & & & & & & & & & & & & & & ^ & & ^ & & ^ ^ ^ ^ ^ ^ * * * * * * * * * & ] _ ",
"  2+[ 3+. 8.# ] % 3 7 7 : : : : & & & & & & & & & : & : & & & & & : & : & & & & & & & & & : & & & & & & & & & & & & & & & & & & & & & & & & & & & & & & : : & & & & & & & & & & & & : : & & & & & & & & & & & & : & & : & & & : & & & ^ & ^ * * * * * * ^ 7 # _ ",
"  4+5+P } &.+ # % % 3 7 7 7 7 : 7 : : : : : : : : : 7 : : : 7 : : : : : : : : 7 : : : : : : : : : : : : : : : : : : : : : : : : : 7 : : : : : : : : : : : : : : : : : : : : : : : : : : : 7 : : : : 7 : : : : : : : : : 7 : : : & & : & & & ^ ^ ^ ^ ^ ^ & 3 8.  ",
"  6+r 1 ' . 8.@ # ] % 3 3 3 7 7 7 7 7 7 7 7 7 7 7 7 7 7 7 7 7 7 7 7 7 7 7 7 7 7 7 7 7 7 7 7 7 7 7 7 7 7 7 7 7 7 7 7 7 7 7 7 7 7 7 7 7 7 7 7 7 7 7 7 7 7 7 7 7 7 7 7 7 7 7 7 7 7 7 7 7 7 7 7 7 7 7 7 7 7 7 7 7 7 7 7 7 7 7 7 7 : 7 7 7 : : & : & & & & : 7 ] 2   ",
"  7+|+[ }+$ . + @ # ] ] % % % % % % % 3 3 % % 3 3 3 3 3 % 3 3 3 3 3 3 3 3 3 3 3 3 % % 3 3 3 % 3 3 3 3 3 % 3 % % 3 3 % 3 3 3 3 3 3 3 % % 3 3 3 3 3 3 3 3 % % 3 3 3 3 3 % 3 3 3 % 3 % % 3 3 3 3 % % 3 3 % % 3 3 3 3 3 3 3 3 3 3 3 % 3 3 3 7 7 7 7 7 7 7 3 % + 6   ",
"    4+y 1 3+} . 8.8.@ + # # # ] # ] ] ] ] ] ] ] ] ] ] ] ] ] ] ] ] ] ] ] ] ] ] ] ] ] ] ] ] ] ] ] ] ] ] ] ] ] ] ] ] ] ] ] ] ] ] ] ] ] ] ] ] ] ] ] ] ] ] ] ] ] ] ] ] ] ] ] ] ] ] ] ] ] ] ] ] ] ] ] ] ] ] ] ] ] ] ] ] ] ] ] ] ] ] ] ] % ] ] % % % 3 % % ] ] @ } [   ",
"    _+8+9+_ 3+$ } . &.8.8.+ + + + + + @ @ + + @ @ @ @ @ + + + @ + @ @ @ @ @ @ @ + @ @ @ @ @ @ + @ + @ @ @ @ @ @ + @ @ @ + @ @ + + @ @ + + @ @ @ + + @ + @ @ @ + @ @ + + @ @ @ @ @ @ + + + + @ @ @ @ @ @ @ @ @ @ @ + + @ + @ @ @ @ @ @ @ @ @ @ @ @ @ + 8.} _     ",
"      0+<+9+1 6 3+' $ } 2 2 . . . . . &.&.&.. &.&.. . &.. . &.&.. . . . . . . &.. &.. &.&.&.. . &.&.&.. &.&.&.. &.. . &.&.. &.. &.. &.&.. &.. . &.&.. . &.. &.. &.&.. . &.. &.&.&.&.&.&.. &.&.&.&.&.. &.. . . . &.. &.. &.&.&.&.&.&.&.&.&.&.&.&.. . 2 ' P <+    ",
"      a+0+|+r 9+1+1 P 6 }+3+3+]+]+]+]+]+]+]+]+]+]+]+]+]+]+]+]+]+]+]+]+]+]+]+]+]+]+]+]+]+]+]+]+]+]+]+]+]+]+]+]+]+]+]+]+]+]+]+]+]+]+]+]+]+]+]+]+]+]+]+]+]+]+]+]+]+]+]+]+]+]+]+]+]+]+]+]+]+]+]+]+]+]+]+]+]+]+]+]+]+]+]+]+]+]+]+]+]+]+' ]+' ]+]+]+3+}+6 _ [ 8+      ",
"        b+_+c+|+<+r 5+9+[ d+d+1+[+[+[+[+[+[+[+[+[+[+[+[+[+[+[+[+[+[+[+[+[+[+[+[+[+[+[+[+[+[+[+[+[+[+[+[+[+[+[+[+[+[+[+[+[+[+[+[+[+[+[+[+[+[+[+[+[+[+[+[+[+[+[+[+[+[+[+[+[+[+[+[+[+[+[+[+[+[+[+[+[+[+[+[+[+[+[+[+[+[+[+[+[+[+[+[+[+[+[+[+1+1+1+[ e+y 5 4+        ",
"            a+f+g+h+| 2+4 8+8+5 i+i+<+<+<+<+i+<+<+<+<+<+<+<+<+<+<+<+i+<+<+<+<+<+<+<+<+<+<+<+<+<+<+<+<+<+<+<+<+<+<+<+<+<+<+<+<+<+<+<+<+<+<+<+<+<+<+<+<+<+<+<+<+<+<+<+<+<+<+<+<+<+<+<+<+<+<+<+<+<+<+<+<+<+<+<+<+<+<+<+<+<+<+<+<+<+<+<+<+i+8+8+4 2+c+g+            ",
"                    b+j+k+f+7+:+:+_+_+_+_+_+_+_+_+_+_+_+_+_+_+_+_+_+_+_+_+_+_+_+_+_+_+_+_+_+_+_+_+_+_+_+_+_+_+_+_+_+_+_+_+_+_+_+_+_+_+_+_+_+_+_+_+_+_+_+_+_+_+_+_+_+_+:+_+_+_+_+_+_+_+_+_+_+_+_+_+_+_+_+_+_+_+_+_+_+_+_+_+_+_+_+_+:+7+7+7+k+                    "};
